{
    "port": 5678,
    "registryFile": "./bowerRepository.json",
    "timeout": 144000,
    "public": {
        "disabled": false,
        "registry": "http://bower.herokuapp.com/packages/",
        "registryFile": "./bowerRepositoryPublic.json",
        "whitelist": [],
        "blacklist": []
    },
    "authentication": {
        "enabled": false,
        "key": "password"
    },
    "repositoryCache": {
        "cachePrivate": false,
        "git": {
            "enabled": false,
            "cacheDirectory": "./gitRepoCache",
            "host": "localhost",
            "port": 6789,
            "publicAccessURL" : null,
            "refreshTimeout": 10
        },
        "svn": {
            "enabled": false,
            "cacheDirectory": "./svnRepoCache",
            "host": "localhost",
            "port": 7891,
            "publicAccessURL" : null,
            "refreshTimeout": 10
        }
    },
    "proxySettings" : {
        "enabled": false,
        "port": 8080,
        "tunnel": false
    },
    "log4js" : {
        "enabled": false,
        "configPath" : "log4js.conf.json"
    }
}
